mtllib materials.mtl
v 0.0001618266 -0.09444439 0.001155019
v -0.00849843 -0.1144444 0.006155014
v -0.009838164 -0.1144444 0.001155019
v -0.004838169 -0.1144444 0.009815216
v 0.0001618266 -0.1144444 0.01115501
v 0.005161822 -0.1144444 0.009815216
v 0.008822083 -0.1144444 0.006155014
v 0.01016182 -0.1144444 0.001155019
v 0.008822083 -0.1144444 -0.003844976
v 0.005161822 -0.1144444 -0.007505178
v 0.0001618266 -0.1144444 -0.008844972
v -0.004838169 -0.1144444 -0.007505178
v -0.00849843 -0.1144444 -0.003844976
v 0.0001618266 -0.0844444 0.0011549
v -0.00849843 -0.1044444 0.006154895
v -0.009838164 -0.1044444 0.0011549
v -0.004838169 -0.1044444 0.009815097
v 0.0001618266 -0.1044444 0.01115489
v 0.005161822 -0.1044444 0.009815097
v 0.008822083 -0.1044444 0.006154895
v 0.01016182 -0.1044444 0.0011549
v 0.008822083 -0.1044444 -0.003845096
v 0.005161822 -0.1044444 -0.007505298
v 0.0001618266 -0.1044444 -0.008845091
v -0.004838169 -0.1044444 -0.007505298
v -0.00849843 -0.1044444 -0.003845096
v 0.0001618266 -0.07444441 0.001155019
v -0.00849843 -0.09444439 0.006155014
v -0.009838164 -0.09444439 0.001155019
v -0.004838169 -0.09444439 0.009815216
v 0.0001618266 -0.09444439 0.01115501
v 0.005161822 -0.09444439 0.009815216
v 0.008822083 -0.09444439 0.006155014
v 0.01016182 -0.09444439 0.001155019
v 0.008822083 -0.09444439 -0.003844976
v 0.005161822 -0.09444439 -0.007505178
v 0.0001618266 -0.09444439 -0.008844972
v -0.004838169 -0.09444439 -0.007505178
v -0.00849843 -0.09444439 -0.003844976
v 0.0001618266 -0.0644443 0.001155019
v -0.00849843 -0.08444428 0.006155014
v -0.009838164 -0.08444428 0.001155019
v -0.004838169 -0.08444428 0.009815216
v 0.0001618266 -0.08444428 0.01115501
v 0.005161822 -0.08444428 0.009815216
v 0.008822083 -0.08444428 0.006155014
v 0.01016182 -0.08444428 0.001155019
v 0.008822083 -0.08444428 -0.003844976
v 0.005161822 -0.08444428 -0.007505178
v 0.0001618266 -0.08444428 -0.008844972
v -0.004838169 -0.08444428 -0.007505178
v -0.00849843 -0.08444428 -0.003844976
v 0.0001618266 -0.05444431 0.001155019
v -0.00849843 -0.07444429 0.006155014
v -0.009838164 -0.07444429 0.001155019
v -0.004838169 -0.07444429 0.009815216
v 0.0001618266 -0.07444429 0.01115501
v 0.005161822 -0.07444429 0.009815216
v 0.008822083 -0.07444429 0.006155014
v 0.01016182 -0.07444429 0.001155019
v 0.008822083 -0.07444429 -0.003844976
v 0.005161822 -0.07444429 -0.007505178
v 0.0001618266 -0.07444429 -0.008844972
v -0.004838169 -0.07444429 -0.007505178
v -0.00849843 -0.07444429 -0.003844976
v 0.0001618266 -0.04444432 0.001155019
v -0.00849843 -0.0644443 0.006155014
v -0.009838164 -0.0644443 0.001155019
v -0.004838169 -0.0644443 0.009815216
v 0.0001618266 -0.0644443 0.01115501
v 0.005161822 -0.0644443 0.009815216
v 0.008822083 -0.0644443 0.006155014
v 0.01016182 -0.0644443 0.001155019
v 0.008822083 -0.0644443 -0.003844976
v 0.005161822 -0.0644443 -0.007505178
v 0.0001618266 -0.0644443 -0.008844972
v -0.004838169 -0.0644443 -0.007505178
v -0.00849843 -0.0644443 -0.003844976
v 0.0001618266 -0.03444433 0.001155019
v -0.00849843 -0.05444431 0.006155014
v -0.009838164 -0.05444431 0.001155019
v -0.004838169 -0.05444431 0.009815216
v 0.0001618266 -0.05444431 0.01115501
v 0.005161822 -0.05444431 0.009815216
v 0.008822083 -0.05444431 0.006155014
v 0.01016182 -0.05444431 0.001155019
v 0.008822083 -0.05444431 -0.003844976
v 0.005161822 -0.05444431 -0.007505178
v 0.0001618266 -0.05444431 -0.008844972
v -0.004838169 -0.05444431 -0.007505178
v -0.00849843 -0.05444431 -0.003844976
v 0.0001618266 -0.02444434 0.001155019
v -0.00849843 -0.04444432 0.006155014
v -0.009838164 -0.04444432 0.001155019
v -0.004838169 -0.04444432 0.009815216
v 0.0001618266 -0.04444432 0.01115501
v 0.005161822 -0.04444432 0.009815216
v 0.008822083 -0.04444432 0.006155014
v 0.01016182 -0.04444432 0.001155019
v 0.008822083 -0.04444432 -0.003844976
v 0.005161822 -0.04444432 -0.007505178
v 0.0001618266 -0.04444432 -0.008844972
v -0.004838169 -0.04444432 -0.007505178
v -0.00849843 -0.04444432 -0.003844976
v 0.0001618266 -0.01444435 0.001155019
v -0.00849843 -0.03444433 0.006155014
v -0.009838164 -0.03444433 0.001155019
v -0.004838169 -0.03444433 0.009815216
v 0.0001618266 -0.03444433 0.01115501
v 0.005161822 -0.03444433 0.009815216
v 0.008822083 -0.03444433 0.006155014
v 0.01016182 -0.03444433 0.001155019
v 0.008822083 -0.03444433 -0.003844976
v 0.005161822 -0.03444433 -0.007505178
v 0.0001618266 -0.03444433 -0.008844972
v -0.004838169 -0.03444433 -0.007505178
v -0.00849843 -0.03444433 -0.003844976
v 0.0001618266 -0.004444361 0.001155019
v -0.00849843 -0.02444434 0.006155014
v -0.009838164 -0.02444434 0.001155019
v -0.004838169 -0.02444434 0.009815216
v 0.0001618266 -0.02444434 0.01115501
v 0.005161822 -0.02444434 0.009815216
v 0.008822083 -0.02444434 0.006155014
v 0.01016182 -0.02444434 0.001155019
v 0.008822083 -0.02444434 -0.003844976
v 0.005161822 -0.02444434 -0.007505178
v 0.0001618266 -0.02444434 -0.008844972
v -0.004838169 -0.02444434 -0.007505178
v -0.00849843 -0.02444434 -0.003844976
v 0.0001618266 0.00555563 0.001155019
v -0.00849843 -0.01444435 0.006155014
v -0.009838164 -0.01444435 0.001155019
v -0.004838169 -0.01444435 0.009815216
v 0.0001618266 -0.01444435 0.01115501
v 0.005161822 -0.01444435 0.009815216
v 0.008822083 -0.01444435 0.006155014
v 0.01016182 -0.01444435 0.001155019
v 0.008822083 -0.01444435 -0.003844976
v 0.005161822 -0.01444435 -0.007505178
v 0.0001618266 -0.01444435 -0.008844972
v -0.004838169 -0.01444435 -0.007505178
v -0.00849843 -0.01444435 -0.003844976
v 0.0001618266 0.01555562 0.001155019
v -0.00849843 -0.004444361 0.006155014
v -0.009838164 -0.004444361 0.001155019
v -0.004838169 -0.004444361 0.009815216
v 0.0001618266 -0.004444361 0.01115501
v 0.005161822 -0.004444361 0.009815216
v 0.008822083 -0.004444361 0.006155014
v 0.01016182 -0.004444361 0.001155019
v 0.008822083 -0.004444361 -0.003844976
v 0.005161822 -0.004444361 -0.007505178
v 0.0001618266 -0.004444361 -0.008844972
v -0.004838169 -0.004444361 -0.007505178
v -0.00849843 -0.004444361 -0.003844976
v 0.0001618266 0.02555561 0.001155019
v -0.00849843 0.00555563 0.006155014
v -0.009838164 0.00555563 0.001155019
v -0.004838169 0.00555563 0.009815216
v 0.0001618266 0.00555563 0.01115501
v 0.005161822 0.00555563 0.009815216
v 0.008822083 0.00555563 0.006155014
v 0.01016182 0.00555563 0.001155019
v 0.008822083 0.00555563 -0.003844976
v 0.005161822 0.00555563 -0.007505178
v 0.0001618266 0.00555563 -0.008844972
v -0.004838169 0.00555563 -0.007505178
v -0.00849843 0.00555563 -0.003844976
v 0.0001618266 0.0355556 0.001155019
v -0.00849843 0.01555562 0.006155014
v -0.009838164 0.01555562 0.001155019
v -0.004838169 0.01555562 0.009815216
v 0.0001618266 0.01555562 0.01115501
v 0.005161822 0.01555562 0.009815216
v 0.008822083 0.01555562 0.006155014
v 0.01016182 0.01555562 0.001155019
v 0.008822083 0.01555562 -0.003844976
v 0.005161822 0.01555562 -0.007505178
v 0.0001618266 0.01555562 -0.008844972
v -0.004838169 0.01555562 -0.007505178
v -0.00849843 0.01555562 -0.003844976
v 0.0001618266 0.04555559 0.001155019
v -0.00849843 0.02555561 0.006155014
v -0.009838164 0.02555561 0.001155019
v -0.004838169 0.02555561 0.009815216
v 0.0001618266 0.02555561 0.01115501
v 0.005161822 0.02555561 0.009815216
v 0.008822083 0.02555561 0.006155014
v 0.01016182 0.02555561 0.001155019
v 0.008822083 0.02555561 -0.003844976
v 0.005161822 0.02555561 -0.007505178
v 0.0001618266 0.02555561 -0.008844972
v -0.004838169 0.02555561 -0.007505178
v -0.00849843 0.02555561 -0.003844976
v -0.009686232 0.04555559 -0.008996964
v -0.01264822 0.04726565 -0.008393884
v -0.01310641 0.04555559 -0.008393884
v -0.01139635 0.04851758 -0.008393884
v -0.009686232 0.04897583 -0.008393884
v -0.007976115 0.04851758 -0.008393884
v -0.006724238 0.04726565 -0.008393884
v -0.006266057 0.04555559 -0.008393884
v -0.006724238 0.04384553 -0.008393884
v -0.007976115 0.0425936 -0.008393884
v -0.009686232 0.04213536 -0.008393884
v -0.01139635 0.0425936 -0.008393884
v -0.01264822 0.04384553 -0.008393884
v -0.01525295 0.04876947 -0.006657362
v -0.01611412 0.04555559 -0.006657362
v -0.01290017 0.05112231 -0.006657362
v -0.009686232 0.05198348 -0.006657362
v -0.00647229 0.05112231 -0.006657362
v -0.004119515 0.04876947 -0.006657362
v -0.003258348 0.04555559 -0.006657362
v -0.004119515 0.04234171 -0.006657362
v -0.00647229 0.03998888 -0.006657362
v -0.009686232 0.03912771 -0.006657362
v -0.01290017 0.03998888 -0.006657362
v -0.01525295 0.04234171 -0.006657362
v -0.01718622 0.04988575 -0.003996968
v -0.01834649 0.04555559 -0.003996968
v -0.01401633 0.05305564 -0.003996968
v -0.009686232 0.05421579 -0.003996968
v -0.005356133 0.05305564 -0.003996968
v -0.002186239 0.04988575 -0.003996968
v -0.001025975 0.04555559 -0.003996968
v -0.002186239 0.04122543 -0.003996968
v -0.005356133 0.03805554 -0.003996968
v -0.009686232 0.03689539 -0.003996968
v -0.01401633 0.03805554 -0.003996968
v -0.01718622 0.04122543 -0.003996968
v -0.01821494 0.05047965 -0.0007334948
v -0.01953429 0.04555559 -0.0007334948
v -0.01461029 0.0540843 -0.0007334948
v -0.009686232 0.05540371 -0.0007334948
v -0.004762173 0.0540843 -0.0007334948
v -0.001157522 0.05047965 -0.0007334948
v 0.0001618266 0.04555559 -0.0007334948
v -0.001157522 0.04063153 -0.0007334948
v -0.004762173 0.03702688 -0.0007334948
v -0.009686232 0.03570747 -0.0007334948
v -0.01461029 0.03702688 -0.0007334948
v -0.01821494 0.04063153 -0.0007334948
v -0.01821494 0.05047965 0.002739549
v -0.01953429 0.04555559 0.002739549
v -0.01461029 0.0540843 0.002739549
v -0.009686232 0.05540371 0.002739549
v -0.004762173 0.0540843 0.002739549
v -0.001157522 0.05047965 0.002739549
v 0.0001618266 0.04555559 0.002739549
v -0.001157522 0.04063153 0.002739549
v -0.004762173 0.03702688 0.002739549
v -0.009686232 0.03570747 0.002739549
v -0.01461029 0.03702688 0.002739549
v -0.01821494 0.04063153 0.002739549
v -0.01718622 0.04988575 0.006003022
v -0.01834649 0.04555559 0.006003022
v -0.01401633 0.05305564 0.006003022
v -0.009686232 0.05421579 0.006003022
v -0.005356133 0.05305564 0.006003022
v -0.002186239 0.04988575 0.006003022
v -0.001025975 0.04555559 0.006003022
v -0.002186239 0.04122543 0.006003022
v -0.005356133 0.03805554 0.006003022
v -0.009686232 0.03689539 0.006003022
v -0.01401633 0.03805554 0.006003022
v -0.01718622 0.04122543 0.006003022
v -0.01525295 0.04876947 0.008663416
v -0.01611412 0.04555559 0.008663416
v -0.01290017 0.05112231 0.008663416
v -0.009686232 0.05198348 0.008663416
v -0.00647229 0.05112231 0.008663416
v -0.004119515 0.04876947 0.008663416
v -0.003258348 0.04555559 0.008663416
v -0.004119515 0.04234171 0.008663416
v -0.00647229 0.03998888 0.008663416
v -0.009686232 0.03912771 0.008663416
v -0.01290017 0.03998888 0.008663416
v -0.01525295 0.04234171 0.008663416
v -0.01264822 0.04726565 0.01039994
v -0.01310641 0.04555559 0.01039994
v -0.01139635 0.04851758 0.01039994
v -0.009686232 0.04897583 0.01039994
v -0.007976115 0.04851758 0.01039994
v -0.006724238 0.04726565 0.01039994
v -0.006266057 0.04555559 0.01039994
v -0.006724238 0.04384553 0.01039994
v -0.007976115 0.0425936 0.01039994
v -0.009686232 0.04213536 0.01039994
v -0.01139635 0.0425936 0.01039994
v -0.01264822 0.04384553 0.01039994
v -0.009686232 0.04555559 0.01100302
v 0.01433831 0.04983163 -0.006100297
v 0.01184404 0.05210209 -0.005272508
v 0.01117331 0.05116498 -0.006616473
v 0.01309782 0.05234182 -0.004045725
v 0.01459867 0.05182016 -0.003264904
v 0.01594448 0.0506767 -0.003139257
v 0.01677459 0.04921794 -0.003702521
v 0.01686662 0.04783463 -0.004803658
v 0.01619589 0.04689753 -0.006147623
v 0.01494211 0.04665768 -0.007374406
v 0.01344126 0.04717946 -0.008155227
v 0.01209545 0.0483228 -0.008280873
v 0.01126534 0.04978168 -0.007717609
v 0.009013951 0.05343497 -0.003764153
v 0.007753372 0.05167389 -0.006290078
v 0.01137024 0.05388582 -0.001458526
v 0.01419097 0.05290532 8.821487E-06
v 0.01672024 0.05075634 0.0002449751
v 0.01828039 0.04801464 -0.0008134842
v 0.0184533 0.04541504 -0.002882957
v 0.01719272 0.04365385 -0.005408883
v 0.01483643 0.04320312 -0.007714391
v 0.0120157 0.04418349 -0.009181857
v 0.009486437 0.04633248 -0.009418011
v 0.007926285 0.04907417 -0.008359432
v 0.006189346 0.05366981 -0.001757026
v 0.004490972 0.05129695 -0.005160213
v 0.009364009 0.05427706 0.001349211
v 0.01316434 0.0529561 0.003326178
v 0.01657206 0.05006075 0.003644347
v 0.01867402 0.04636705 0.002218246
v 0.01890701 0.04286444 -0.0005699396
v 0.01720864 0.04049158 -0.003973126
v 0.01403397 0.03988433 -0.007079363
v 0.01023364 0.04120529 -0.00905633
v 0.006825984 0.04410052 -0.009374499
v 0.004724026 0.04779434 -0.007948399
v 0.003710985 0.05277801 0.0005065203
v 0.001779675 0.0500797 -0.003363371
v 0.007321119 0.05346859 0.004038811
v 0.01164269 0.05196643 0.006287098
v 0.01551777 0.04867399 0.006648779
v 0.01790804 0.04447353 0.005027056
v 0.01817298 0.04049063 0.001856565
v 0.01624167 0.03779233 -0.002013445
v 0.0126316 0.03710175 -0.005545735
v 0.00831002 0.0386039 -0.007793903
v 0.004434943 0.04189622 -0.008155704
v 0.002044678 0.04609668 -0.00653398
v 0.001877785 0.0508672 0.002753735
v -5.352497E-05 0.0481689 -0.001116276
v 0.005487859 0.05155778 0.006286025
v 0.009809434 0.05005562 0.008534193
v 0.01368451 0.0467633 0.008895993
v 0.01607478 0.04256284 0.00727427
v 0.01633978 0.03857982 0.004103661
v 0.01440847 0.03588152 0.0002337694
v 0.01079834 0.03519094 -0.003298521
v 0.00647676 0.0366931 -0.005546808
v 0.002601683 0.03998554 -0.005908489
v 0.0002114177 0.044186 -0.004286766
v 0.0009108186 0.04816794 0.004713416
v -0.0007875562 0.04579508 0.001310229
v 0.004085481 0.0487752 0.007819653
v 0.007885814 0.04745424 0.009796619
v 0.01129347 0.044559 0.01011479
v 0.01339543 0.04086518 0.008688688
v 0.01362848 0.03736258 0.005900502
v 0.01193011 0.03498971 0.002497315
v 0.008755445 0.03438246 -0.0006089211
v 0.004955113 0.03570342 -0.002585888
v 0.001547396 0.03859878 -0.002904058
v -0.0005545616 0.04229248 -0.001477957
v 0.000926733 0.04500568 0.006149173
v -0.0003338456 0.04324448 0.003623247
v 0.003283024 0.04545641 0.00845468
v 0.006103754 0.04447603 0.009922147
v 0.008633018 0.04232705 0.0101583
v 0.01019317 0.03958535 0.009099722
v 0.01036608 0.03698564 0.007030368
v 0.009105504 0.03522456 0.004504442
v 0.006749213 0.03477371 0.002198815
v 0.003928483 0.0357542 0.0007314682
v 0.001399219 0.03790319 0.0004953146
v -0.0001609325 0.04064488 0.001553774
v 0.001923561 0.04176199 0.006887913
v 0.00125283 0.04082489 0.005543947
v 0.003177345 0.04200184 0.008114696
v 0.00467819 0.04148006 0.008895516
v 0.006024003 0.04033661 0.009021163
v 0.006854117 0.03887784 0.008457899
v 0.006946146 0.03749454 0.007356763
v 0.006275415 0.03655744 0.006012797
v 0.005021632 0.03631771 0.004786015
v 0.003520787 0.03683937 0.004005194
v 0.002174973 0.03798282 0.003879666
v 0.00134486 0.03944159 0.004442811
v 0.00378114 0.0388279 0.006840587
v 0.007210076 0.0479517 -0.0159024
v 0.004517138 0.05014086 -0.0157702
v 0.004312277 0.04926491 -0.01729512
v 0.005333304 0.05033481 -0.01421118
v 0.006541967 0.04979479 -0.01303566
v 0.007819414 0.04866564 -0.01255858
v 0.008823216 0.04724967 -0.01290798
v 0.009284496 0.04592657 -0.01399004
v 0.009079576 0.04505062 -0.01551485
v 0.008263469 0.04485667 -0.01707399
v 0.007054746 0.04539669 -0.01824951
v 0.005777359 0.04652596 -0.01872647
v 0.004773498 0.0479418 -0.01837718
v 0.001325667 0.05135393 -0.01513445
v 0.0009406209 0.04970777 -0.01800025
v 0.002859473 0.05171847 -0.01220429
v 0.005131125 0.05070364 -0.009995103
v 0.007531881 0.04858148 -0.009098649
v 0.009418428 0.04592049 -0.009755135
v 0.01028532 0.04343367 -0.01178873
v 0.009900272 0.04178751 -0.01465464
v 0.008366406 0.04142308 -0.01758468
v 0.006094813 0.04243791 -0.01979399
v 0.003694057 0.04456007 -0.02069044
v 0.001807511 0.04722106 -0.02003384
v -0.00197947 0.05144477 -0.0140717
v -0.002498269 0.04922688 -0.01793277
v 8.708239E-05 0.05193591 -0.01012397
v 0.003147602 0.05056858 -0.007147431
v 0.006382108 0.04770935 -0.005939603
v 0.008923888 0.04412425 -0.006824136
v 0.01009184 0.04077387 -0.009564042
v 0.009573102 0.03855598 -0.01342523
v 0.007506549 0.03806484 -0.01737297
v 0.00444597 0.03943217 -0.0203495
v 0.001211464 0.0422914 -0.02155721
v -0.001330256 0.0458765 -0.02067268
v -0.004999578 0.05040228 -0.01271021
v -0.005589485 0.04788029 -0.01710081
v -0.002649605 0.05096078 -0.00822103
v 0.0008307695 0.04940605 -0.004836202
v 0.004508913 0.04615462 -0.003462672
v 0.007399261 0.04207766 -0.00446856
v 0.008727431 0.03826785 -0.007584333
v 0.008137465 0.03574574 -0.01197505
v 0.005787492 0.03518724 -0.01646411
v 0.002307177 0.03674209 -0.01984894
v -0.001370966 0.03999352 -0.02122247
v -0.004261374 0.04407036 -0.02021658
v -0.007370353 0.04835236 -0.01121402
v -0.00796032 0.04583025 -0.01560473
v -0.00502038 0.04891086 -0.006724954
v -0.001540065 0.04735601 -0.003340125
v 0.002138078 0.04410458 -0.001966596
v 0.005028427 0.04002774 -0.002972484
v 0.006356597 0.03621781 -0.006088257
v 0.00576669 0.03369582 -0.01047885
v 0.003416717 0.03313732 -0.01496804
v -6.365776E-05 0.03469205 -0.01835287
v -0.003741801 0.03794348 -0.0197264
v -0.006632149 0.04202044 -0.01872051
v -0.00880599 0.04554212 -0.009763837
v -0.009324729 0.04332423 -0.01362503
v -0.006739438 0.04603326 -0.005816102
v -0.003678858 0.04466593 -0.002839565
v -0.0004443526 0.0418067 -0.001631856
v 0.002097368 0.0382216 -0.002516389
v 0.003265381 0.03487122 -0.005256295
v 0.002746582 0.03265333 -0.009117365
v 0.0006800294 0.03216219 -0.0130651
v -0.00238049 0.03352952 -0.01604164
v -0.005614996 0.03638875 -0.01724946
v -0.008156776 0.03997386 -0.01636493
v -0.00913316 0.0423106 -0.008534431
v -0.009518206 0.04066443 -0.01140034
v -0.007599294 0.04267502 -0.005604386
v -0.005327702 0.04166019 -0.003395081
v -0.002926946 0.03953803 -0.002498627
v -0.001040399 0.03687704 -0.003155231
v -0.0001735091 0.03439033 -0.005188823
v -0.0005585551 0.03274417 -0.008054614
v -0.002092361 0.03237963 -0.01098478
v -0.004364014 0.03339446 -0.01319396
v -0.00676477 0.03551662 -0.01409042
v -0.008651316 0.03817761 -0.01343393
v -0.008312464 0.03904748 -0.007674217
v -0.008517385 0.03817153 -0.009199023
v -0.007496357 0.03924143 -0.006115079
v -0.006287634 0.03870142 -0.004939556
v -0.005010247 0.03757215 -0.0044626
v -0.004006386 0.0361563 -0.004811883
v -0.003545165 0.03483319 -0.005893946
v -0.003750026 0.03395724 -0.007418871
v -0.004566193 0.03376329 -0.00897789
v -0.005774856 0.03430331 -0.01015341
v -0.007052302 0.03543246 -0.01063049
v -0.008056104 0.03684843 -0.01028109
v -0.006442964 0.0361464 -0.007286668
v 0.003154516 0.04373896 0.019315
v 0.003181756 0.04578769 0.01651084
v 0.004608691 0.04475546 0.01632953
v 0.001666605 0.04617727 0.01733959
v 0.0004692674 0.04582 0.01859379
v -8.952618E-05 0.04481149 0.0199374
v 0.0001400113 0.04342198 0.02101016
v 0.001096368 0.04202378 0.02152491
v 0.002523303 0.04099154 0.02134359
v 0.004038453 0.04060197 0.02051473
v 0.005235791 0.04095924 0.01926053
v 0.005794585 0.04196775 0.01791704
v 0.005565047 0.04335725 0.01684415
v 0.002601683 0.0468905 0.01326907
v 0.005283475 0.0449506 0.01292825
v -0.0002458096 0.0476228 0.01482677
v -0.002496183 0.04695129 0.0171839
v -0.003546357 0.04505587 0.01970887
v -0.003114939 0.04244447 0.02172518
v -0.00131762 0.03981674 0.02269244
v 0.001364172 0.03787684 0.02235162
v 0.004211664 0.03714454 0.02079403
v 0.006462038 0.03781617 0.01843691
v 0.007512212 0.03971148 0.01591194
v 0.007080793 0.04232299 0.01389563
v 0.001484334 0.04691446 0.009980917
v 0.005097389 0.04430091 0.009521723
v -0.002352178 0.04790115 0.01207948
v -0.005384088 0.04699636 0.01525521
v -0.006798983 0.04444265 0.01865721
v -0.006217718 0.04092431 0.02137375
v -0.00379616 0.03738403 0.02267694
v -0.0001830459 0.03477049 0.02221787
v 0.003653407 0.03378391 0.02011919
v 0.006685317 0.03468859 0.01694345
v 0.008100212 0.03724229 0.01354158
v 0.007519007 0.04076064 0.01082504
v -3.564358E-05 0.04585683 0.007042766
v 0.004073024 0.04288471 0.006520629
v -0.004398346 0.04697871 0.009429216
v -0.007846057 0.04594982 0.01304054
v -0.009455025 0.04304588 0.01690912
v -0.008794129 0.03904498 0.01999819
v -0.006040394 0.03501916 0.02148032
v -0.001931727 0.03204703 0.02095807
v 0.002430975 0.03092515 0.01857162
v 0.005878687 0.03195405 0.01496029
v 0.007487655 0.03485799 0.01109183
v 0.006826758 0.03885889 0.008002639
v -0.001774848 0.04384494 0.00480926
v 0.00233382 0.04087281 0.004287004
v -0.00613755 0.04496682 0.007195711
v -0.009585261 0.04393792 0.01080704
v -0.01119423 0.04103398 0.0146755
v -0.01053333 0.03703308 0.01776469
v -0.007779598 0.03300726 0.0192467
v -0.003670931 0.03003514 0.01872456
v 0.0006917715 0.02891326 0.01633811
v 0.004139483 0.02994215 0.01272678
v 0.005748451 0.03284609 0.008858204
v 0.005087554 0.036847 0.005769134
v -0.003523529 0.04112148 0.003549457
v 8.958578E-05 0.03850794 0.003090382
v -0.007359982 0.04210806 0.005648136
v -0.01039189 0.04120338 0.008823872
v -0.01180679 0.03864968 0.01222575
v -0.01122558 0.03513134 0.01494229
v -0.008803964 0.03159106 0.0162456
v -0.005190909 0.02897751 0.01578641
v -0.001354396 0.02799082 0.01368785
v 0.001677513 0.02889562 0.01051211
v 0.003092408 0.03144932 0.007110119
v 0.002511144 0.03496766 0.004393578
v -0.005070746 0.03801513 0.003415585
v -0.002388954 0.03607523 0.003074884
v -0.007918239 0.03874743 0.004973292
v -0.01016861 0.0380758 0.007330418
v -0.01121879 0.0361805 0.00985539
v -0.01078737 0.03356898 0.0118717
v -0.008990049 0.03094137 0.01283908
v -0.006308258 0.02900147 0.01249826
v -0.003460765 0.02826917 0.01094055
v -0.001210392 0.02894068 0.008583426
v -0.0001602173 0.03083611 0.006058455
v -0.0005916357 0.0334475 0.004042149
v -0.006229877 0.03490043 0.004423738
v -0.004802942 0.03386819 0.00424242
v -0.007745028 0.03529 0.0052526
v -0.008942366 0.03493273 0.006506801
v -0.009501159 0.03392422 0.007850289
v -0.009271622 0.03253472 0.008923173
v -0.008315265 0.03113651 0.009437799
v -0.00688833 0.03010428 0.009256482
v -0.00537318 0.0297147 0.008427739
v -0.004175842 0.03007197 0.007173538
v -0.003617048 0.03108048 0.00582993
v -0.003846586 0.03246999 0.004757166
v -0.006861091 0.03215301 0.006452322
v -0.01585174 0.07261169 -0.05176365
v -0.05424339 0.002610207 -0.07663643
v -0.01358354 0.07023215 -0.04677224
v -0.04709864 0.08376336 -0.02230346
v 0.005624652 0.05008125 -0.004502416
v -0.03714877 0.06310272 -0.04561651
v -0.06615949 0.05099297 -0.06096971
v 0.02916473 0.07523322 -0.04486454
v 0.0349102 0.01887131 -0.09832311
v 0.02636528 0.07239461 -0.04041183
v -0.013008 0.07822561 -0.05832326
v 0.002658308 0.04835606 -0.002704024
v 0.01563764 0.06257856 -0.06031275
v 0.01753157 0.0497607 -0.09281051
v 0.04528046 0.06289577 0.02934206
v 0.09979749 0.01188266 0.01700473
v 0.04016662 0.06121588 0.02674437
v 0.04652905 0.08705831 -0.007849932
v -0.003139973 0.04699028 0.004746079
v 0.05608726 0.06007791 0.007963419
v 0.08755469 0.05183637 -0.004915595
v -0.01204985 0.07897568 0.03487253
v 0.008127093 0.02958012 0.105529
v -0.01104784 0.07470453 0.03081369
v 0.0404138 0.08730328 0.03015912
v -0.002562881 0.03853428 -0.003558874
v 0.01124084 0.07748079 0.04096222
v 0.02871937 0.07067215 0.06817043
v -0.0381884 0.0808965 -0.02009249
v -0.09749186 0.009978414 0.001457334
v -0.03384507 0.07726693 -0.01817346
v -0.03622627 0.08380878 0.02485347
v 0.00293678 0.04653025 -0.001922011
v -0.04859191 0.0785042 0.001536489
v -0.07098436 0.07177281 0.0156008
v -0.05110776 0.07076728 0.02561033
v -0.0743221 0.004496694 0.05932701
v -0.04616463 0.06900179 0.02275205
v -0.02141899 0.0724653 0.05853939
v -0.004303515 0.05405176 -0.00145328
v -0.04513288 0.0557183 0.04348767
v -0.06069976 0.03646743 0.06820738
v 0.04360062 0.08146739 -0.006209612
v 0.08717096 0.03322697 -0.04225886
v 0.03888571 0.07788348 -0.005405068
v 0.02011156 0.09030533 -0.042799
v -0.001042485 0.04753435 0.001407981
v 0.02446282 0.05666184 -0.013363
v 0.0683347 0.06846344 -0.05419004
vn -0.8697966 0.4348983 0.2330612
vn -0.6367352 0.4348983 0.6367353
vn -0.2330612 0.4348983 0.8697966
vn 0.2330612 0.4348983 0.8697966
vn 0.6367352 0.4348983 0.6367352
vn 0.8697965 0.4348982 0.2330611
vn 0.8697965 0.4348982 -0.2330615
vn 0.6367351 0.4348982 -0.6367353
vn 0.2330612 0.4348982 -0.8697965
vn -0.2330612 0.4348982 -0.8697965
vn -0.6367352 0.4348982 -0.6367353
vn -0.8697966 0.4348983 -0.233061
vn 0 -1 0
vn -0.8697966 0.4348983 0.2330612
vn -0.6367352 0.4348983 0.6367353
vn -0.2330612 0.4348983 0.8697966
vn 0.2330612 0.4348983 0.8697966
vn 0.6367352 0.4348983 0.6367352
vn 0.8697965 0.4348982 0.2330611
vn 0.8697965 0.4348982 -0.2330615
vn 0.6367351 0.4348982 -0.6367353
vn 0.2330612 0.4348982 -0.8697965
vn -0.2330612 0.4348982 -0.8697965
vn -0.6367352 0.4348982 -0.6367353
vn -0.8697966 0.4348983 -0.233061
vn 0 -1 0
vn -0.8697966 0.4348983 0.2330612
vn -0.6367352 0.4348983 0.6367353
vn -0.2330612 0.4348983 0.8697966
vn 0.2330612 0.4348983 0.8697966
vn 0.6367352 0.4348983 0.6367352
vn 0.8697965 0.4348982 0.2330611
vn 0.8697965 0.4348982 -0.2330615
vn 0.6367351 0.4348982 -0.6367353
vn 0.2330612 0.4348982 -0.8697965
vn -0.2330612 0.4348982 -0.8697965
vn -0.6367352 0.4348982 -0.6367353
vn -0.8697966 0.4348983 -0.233061
vn 0 -1 0
vn -0.8697966 0.4348983 0.2330612
vn -0.6367352 0.4348983 0.6367353
vn -0.2330612 0.4348983 0.8697966
vn 0.2330612 0.4348983 0.8697966
vn 0.6367352 0.4348983 0.6367352
vn 0.8697965 0.4348982 0.2330611
vn 0.8697965 0.4348982 -0.2330615
vn 0.6367351 0.4348982 -0.6367353
vn 0.2330612 0.4348982 -0.8697965
vn -0.2330612 0.4348982 -0.8697965
vn -0.6367352 0.4348982 -0.6367353
vn -0.8697966 0.4348983 -0.233061
vn 0 -1 0
vn -0.8697966 0.4348983 0.2330612
vn -0.6367352 0.4348983 0.6367353
vn -0.2330612 0.4348983 0.8697966
vn 0.2330612 0.4348983 0.8697966
vn 0.6367352 0.4348983 0.6367352
vn 0.8697965 0.4348982 0.2330611
vn 0.8697965 0.4348982 -0.2330615
vn 0.6367351 0.4348982 -0.6367353
vn 0.2330612 0.4348982 -0.8697965
vn -0.2330612 0.4348982 -0.8697965
vn -0.6367352 0.4348982 -0.6367353
vn -0.8697966 0.4348983 -0.233061
vn 0 -1 0
vn -0.8697966 0.4348983 0.2330612
vn -0.6367352 0.4348983 0.6367353
vn -0.2330612 0.4348983 0.8697966
vn 0.2330612 0.4348983 0.8697966
vn 0.6367352 0.4348983 0.6367352
vn 0.8697965 0.4348982 0.2330611
vn 0.8697965 0.4348982 -0.2330615
vn 0.6367351 0.4348982 -0.6367353
vn 0.2330612 0.4348982 -0.8697965
vn -0.2330612 0.4348982 -0.8697965
vn -0.6367352 0.4348982 -0.6367353
vn -0.8697966 0.4348983 -0.233061
vn 0 -1 0
vn -0.8697966 0.4348983 0.2330612
vn -0.6367352 0.4348983 0.6367353
vn -0.2330612 0.4348983 0.8697966
vn 0.2330612 0.4348983 0.8697966
vn 0.6367352 0.4348983 0.6367352
vn 0.8697965 0.4348982 0.2330611
vn 0.8697965 0.4348982 -0.2330615
vn 0.6367351 0.4348982 -0.6367353
vn 0.2330612 0.4348982 -0.8697965
vn -0.2330612 0.4348982 -0.8697965
vn -0.6367352 0.4348982 -0.6367353
vn -0.8697966 0.4348983 -0.233061
vn 0 -1 0
vn -0.8697966 0.4348983 0.2330612
vn -0.6367352 0.4348983 0.6367353
vn -0.2330612 0.4348983 0.8697966
vn 0.2330612 0.4348983 0.8697966
vn 0.6367352 0.4348983 0.6367352
vn 0.8697965 0.4348982 0.2330611
vn 0.8697965 0.4348982 -0.2330615
vn 0.6367351 0.4348982 -0.6367353
vn 0.2330612 0.4348982 -0.8697965
vn -0.2330612 0.4348982 -0.8697965
vn -0.6367352 0.4348982 -0.6367353
vn -0.8697966 0.4348983 -0.233061
vn 0 -1 0
vn -0.8697966 0.4348983 0.2330612
vn -0.6367352 0.4348983 0.6367353
vn -0.2330612 0.4348983 0.8697966
vn 0.2330612 0.4348983 0.8697966
vn 0.6367352 0.4348983 0.6367352
vn 0.8697965 0.4348982 0.2330611
vn 0.8697965 0.4348982 -0.2330615
vn 0.6367351 0.4348982 -0.6367353
vn 0.2330612 0.4348982 -0.8697965
vn -0.2330612 0.4348982 -0.8697965
vn -0.6367352 0.4348982 -0.6367353
vn -0.8697966 0.4348983 -0.233061
vn 0 -1 0
vn -0.8697966 0.4348983 0.2330612
vn -0.6367352 0.4348983 0.6367353
vn -0.2330612 0.4348983 0.8697966
vn 0.2330612 0.4348983 0.8697966
vn 0.6367352 0.4348983 0.6367352
vn 0.8697965 0.4348982 0.2330611
vn 0.8697965 0.4348982 -0.2330615
vn 0.6367351 0.4348982 -0.6367353
vn 0.2330612 0.4348982 -0.8697965
vn -0.2330612 0.4348982 -0.8697965
vn -0.6367352 0.4348982 -0.6367353
vn -0.8697966 0.4348983 -0.233061
vn 0 -1 0
vn -0.8697966 0.4348983 0.2330612
vn -0.6367352 0.4348983 0.6367353
vn -0.2330612 0.4348983 0.8697966
vn 0.2330612 0.4348983 0.8697966
vn 0.6367352 0.4348983 0.6367352
vn 0.8697965 0.4348982 0.2330611
vn 0.8697965 0.4348982 -0.2330615
vn 0.6367351 0.4348982 -0.6367353
vn 0.2330612 0.4348982 -0.8697965
vn -0.2330612 0.4348982 -0.8697965
vn -0.6367352 0.4348982 -0.6367353
vn -0.8697966 0.4348983 -0.233061
vn 0 -1 0
vn -0.8697966 0.4348983 0.2330612
vn -0.6367352 0.4348983 0.6367353
vn -0.2330612 0.4348983 0.8697966
vn 0.2330612 0.4348983 0.8697966
vn 0.6367352 0.4348983 0.6367352
vn 0.8697965 0.4348982 0.2330611
vn 0.8697965 0.4348982 -0.2330615
vn 0.6367351 0.4348982 -0.6367353
vn 0.2330612 0.4348982 -0.8697965
vn -0.2330612 0.4348982 -0.8697965
vn -0.6367352 0.4348982 -0.6367353
vn -0.8697966 0.4348983 -0.233061
vn 0 -1 0
vn -0.8697966 0.4348983 0.2330612
vn -0.6367352 0.4348983 0.6367353
vn -0.2330612 0.4348983 0.8697966
vn 0.2330612 0.4348983 0.8697966
vn 0.6367352 0.4348983 0.6367352
vn 0.8697965 0.4348982 0.2330611
vn 0.8697965 0.4348982 -0.2330615
vn 0.6367351 0.4348982 -0.6367353
vn 0.2330612 0.4348982 -0.8697965
vn -0.2330612 0.4348982 -0.8697965
vn -0.6367352 0.4348982 -0.6367353
vn -0.8697966 0.4348983 -0.233061
vn 0 -1 0
vn -0.8697966 0.4348983 0.2330612
vn -0.6367352 0.4348983 0.6367353
vn -0.2330612 0.4348983 0.8697966
vn 0.2330612 0.4348983 0.8697966
vn 0.6367352 0.4348983 0.6367352
vn 0.8697965 0.4348982 0.2330611
vn 0.8697965 0.4348982 -0.2330615
vn 0.6367351 0.4348982 -0.6367353
vn 0.2330612 0.4348982 -0.8697965
vn -0.2330612 0.4348982 -0.8697965
vn -0.6367352 0.4348982 -0.6367353
vn -0.8697966 0.4348983 -0.233061
vn 0 -1 0
vn -0.8697966 0.4348983 0.2330612
vn -0.6367352 0.4348983 0.6367353
vn -0.2330612 0.4348983 0.8697966
vn 0.2330612 0.4348983 0.8697966
vn 0.6367352 0.4348983 0.6367352
vn 0.8697965 0.4348982 0.2330611
vn 0.8697965 0.4348982 -0.2330615
vn 0.6367351 0.4348982 -0.6367353
vn 0.2330612 0.4348982 -0.8697965
vn -0.2330612 0.4348982 -0.8697965
vn -0.6367352 0.4348982 -0.6367353
vn -0.8697966 0.4348983 -0.233061
vn 0 -1 0
vn 0 1 0
vn 0 1 0
vn 0 1 0
vn 0 1 0
vn 0 1 0
vn 0 1 0
vn 0 1 0
vn 0 1 0
vn 0 1 0
vn 0 1 0
vn 0 1 0
vn 0 1 0
vn -0.3420202 0.9396926 0
vn -0.2961981 0.9396926 0.1710101
vn -0.1710101 0.9396926 0.2961982
vn 1.495018E-08 0.9396926 0.3420202
vn 0.1710101 0.9396926 0.2961981
vn 0.2961981 0.9396926 0.1710101
vn 0.3420202 0.9396926 -2.990035E-08
vn 0.2961981 0.9396926 -0.1710101
vn 0.17101 0.9396926 -0.2961982
vn -4.078549E-09 0.9396926 -0.3420202
vn -0.17101 0.9396926 -0.2961982
vn -0.2961982 0.9396926 -0.17101
vn -0.6427876 0.7660444 0
vn -0.5566704 0.7660444 0.3213938
vn -0.3213938 0.7660444 0.5566704
vn 2.809714E-08 0.7660444 0.6427876
vn 0.3213938 0.7660444 0.5566704
vn 0.5566704 0.7660444 0.3213938
vn 0.6427876 0.7660444 -5.619428E-08
vn 0.5566703 0.7660444 -0.3213939
vn 0.3213938 0.7660444 -0.5566704
vn -7.665165E-09 0.7660444 -0.6427876
vn -0.3213938 0.7660444 -0.5566704
vn -0.5566705 0.7660444 -0.3213937
vn -0.8660254 0.4999999 0
vn -0.75 0.4999999 0.4330127
vn -0.4330127 0.4999999 0.7500001
vn 3.785517E-08 0.4999999 0.8660254
vn 0.4330128 0.4999999 0.75
vn 0.75 0.4999999 0.4330128
vn 0.8660254 0.4999999 -7.571035E-08
vn 0.7499999 0.4999999 -0.4330128
vn 0.4330126 0.4999999 -0.7500001
vn -1.032725E-08 0.4999999 -0.8660254
vn -0.4330126 0.4999999 -0.7500001
vn -0.7500002 0.4999999 -0.4330125
vn -0.9848078 0.1736481 0
vn -0.8528686 0.1736481 0.4924039
vn -0.4924039 0.1736481 0.8528686
vn 4.304732E-08 0.1736481 0.9848078
vn 0.492404 0.1736481 0.8528686
vn 0.8528686 0.1736481 0.492404
vn 0.9848078 0.1736481 -8.609463E-08
vn 0.8528684 0.1736481 -0.4924041
vn 0.4924038 0.1736481 -0.8528686
vn -1.174372E-08 0.1736481 -0.9848078
vn -0.4924038 0.1736481 -0.8528686
vn -0.8528687 0.1736481 -0.4924037
vn -0.9848077 -0.1736482 0
vn -0.8528686 -0.1736482 0.4924039
vn -0.4924039 -0.1736482 0.8528686
vn 4.304731E-08 -0.1736482 0.9848077
vn 0.492404 -0.1736482 0.8528686
vn 0.8528686 -0.1736482 0.492404
vn 0.9848077 -0.1736482 -8.609462E-08
vn 0.8528684 -0.1736482 -0.4924041
vn 0.4924038 -0.1736482 -0.8528686
vn -1.174371E-08 -0.1736482 -0.9848077
vn -0.4924038 -0.1736482 -0.8528686
vn -0.8528686 -0.1736482 -0.4924036
vn -0.8660254 -0.5000001 0
vn -0.75 -0.5000001 0.4330127
vn -0.4330127 -0.5000001 0.75
vn 3.785517E-08 -0.5000001 0.8660254
vn 0.4330128 -0.5000001 0.75
vn 0.75 -0.5000001 0.4330128
vn 0.8660254 -0.5000001 -7.571035E-08
vn 0.7499999 -0.5000001 -0.4330128
vn 0.4330126 -0.5000001 -0.75
vn -1.032725E-08 -0.5000001 -0.8660254
vn -0.4330126 -0.5000001 -0.75
vn -0.7500001 -0.5000001 -0.4330125
vn -0.6427876 -0.7660444 0
vn -0.5566704 -0.7660444 0.3213938
vn -0.3213938 -0.7660444 0.5566704
vn 2.809714E-08 -0.7660444 0.6427876
vn 0.3213938 -0.7660444 0.5566704
vn 0.5566704 -0.7660444 0.3213938
vn 0.6427876 -0.7660444 -5.619428E-08
vn 0.5566703 -0.7660444 -0.3213939
vn 0.3213938 -0.7660444 -0.5566704
vn -7.665165E-09 -0.7660444 -0.6427876
vn -0.3213938 -0.7660444 -0.5566704
vn -0.5566705 -0.7660444 -0.3213937
vn -0.34202 -0.9396927 0
vn -0.296198 -0.9396927 0.17101
vn -0.17101 -0.9396927 0.296198
vn 1.495017E-08 -0.9396927 0.34202
vn 0.17101 -0.9396927 0.296198
vn 0.296198 -0.9396927 0.17101
vn 0.34202 -0.9396927 -2.990034E-08
vn 0.296198 -0.9396927 -0.1710101
vn 0.17101 -0.9396927 -0.296198
vn -4.078548E-09 -0.9396927 -0.34202
vn -0.17101 -0.9396927 -0.296198
vn -0.2961981 -0.9396927 -0.1710099
vn 0 1 0
vn 0 1 0
vn 0 1 0
vn 0 1 0
vn 0 1 0
vn 0 1 0
vn 0 1 0
vn 0 1 0
vn 0 1 0
vn 0 1 0
vn 0 1 0
vn 0 1 0
vn -0.3420202 0.9396926 0
vn -0.2961981 0.9396926 0.1710101
vn -0.1710101 0.9396926 0.2961982
vn 1.495018E-08 0.9396926 0.3420202
vn 0.1710101 0.9396926 0.2961981
vn 0.2961981 0.9396926 0.1710101
vn 0.3420202 0.9396926 -2.990035E-08
vn 0.2961981 0.9396926 -0.1710101
vn 0.17101 0.9396926 -0.2961982
vn -4.078549E-09 0.9396926 -0.3420202
vn -0.17101 0.9396926 -0.2961982
vn -0.2961982 0.9396926 -0.17101
vn -0.6427876 0.7660444 0
vn -0.5566704 0.7660444 0.3213938
vn -0.3213938 0.7660444 0.5566704
vn 2.809714E-08 0.7660444 0.6427876
vn 0.3213938 0.7660444 0.5566704
vn 0.5566704 0.7660444 0.3213938
vn 0.6427876 0.7660444 -5.619428E-08
vn 0.5566703 0.7660444 -0.3213939
vn 0.3213938 0.7660444 -0.5566704
vn -7.665165E-09 0.7660444 -0.6427876
vn -0.3213938 0.7660444 -0.5566704
vn -0.5566705 0.7660444 -0.3213937
vn -0.8660254 0.4999999 0
vn -0.75 0.4999999 0.4330127
vn -0.4330127 0.4999999 0.7500001
vn 3.785517E-08 0.4999999 0.8660254
vn 0.4330128 0.4999999 0.75
vn 0.75 0.4999999 0.4330128
vn 0.8660254 0.4999999 -7.571035E-08
vn 0.7499999 0.4999999 -0.4330128
vn 0.4330126 0.4999999 -0.7500001
vn -1.032725E-08 0.4999999 -0.8660254
vn -0.4330126 0.4999999 -0.7500001
vn -0.7500002 0.4999999 -0.4330125
vn -0.9848078 0.1736481 0
vn -0.8528686 0.1736481 0.4924039
vn -0.4924039 0.1736481 0.8528686
vn 4.304732E-08 0.1736481 0.9848078
vn 0.492404 0.1736481 0.8528686
vn 0.8528686 0.1736481 0.492404
vn 0.9848078 0.1736481 -8.609463E-08
vn 0.8528684 0.1736481 -0.4924041
vn 0.4924038 0.1736481 -0.8528686
vn -1.174372E-08 0.1736481 -0.9848078
vn -0.4924038 0.1736481 -0.8528686
vn -0.8528687 0.1736481 -0.4924037
vn -0.9848077 -0.1736482 0
vn -0.8528686 -0.1736482 0.4924039
vn -0.4924039 -0.1736482 0.8528686
vn 4.304731E-08 -0.1736482 0.9848077
vn 0.492404 -0.1736482 0.8528686
vn 0.8528686 -0.1736482 0.492404
vn 0.9848077 -0.1736482 -8.609462E-08
vn 0.8528684 -0.1736482 -0.4924041
vn 0.4924038 -0.1736482 -0.8528686
vn -1.174371E-08 -0.1736482 -0.9848077
vn -0.4924038 -0.1736482 -0.8528686
vn -0.8528686 -0.1736482 -0.4924036
vn -0.8660254 -0.5000001 0
vn -0.75 -0.5000001 0.4330127
vn -0.4330127 -0.5000001 0.75
vn 3.785517E-08 -0.5000001 0.8660254
vn 0.4330128 -0.5000001 0.75
vn 0.75 -0.5000001 0.4330128
vn 0.8660254 -0.5000001 -7.571035E-08
vn 0.7499999 -0.5000001 -0.4330128
vn 0.4330126 -0.5000001 -0.75
vn -1.032725E-08 -0.5000001 -0.8660254
vn -0.4330126 -0.5000001 -0.75
vn -0.7500001 -0.5000001 -0.4330125
vn -0.6427876 -0.7660444 0
vn -0.5566704 -0.7660444 0.3213938
vn -0.3213938 -0.7660444 0.5566704
vn 2.809714E-08 -0.7660444 0.6427876
vn 0.3213938 -0.7660444 0.5566704
vn 0.5566704 -0.7660444 0.3213938
vn 0.6427876 -0.7660444 -5.619428E-08
vn 0.5566703 -0.7660444 -0.3213939
vn 0.3213938 -0.7660444 -0.5566704
vn -7.665165E-09 -0.7660444 -0.6427876
vn -0.3213938 -0.7660444 -0.5566704
vn -0.5566705 -0.7660444 -0.3213937
vn -0.34202 -0.9396927 0
vn -0.296198 -0.9396927 0.17101
vn -0.17101 -0.9396927 0.296198
vn 1.495017E-08 -0.9396927 0.34202
vn 0.17101 -0.9396927 0.296198
vn 0.296198 -0.9396927 0.17101
vn 0.34202 -0.9396927 -2.990034E-08
vn 0.296198 -0.9396927 -0.1710101
vn 0.17101 -0.9396927 -0.296198
vn -4.078548E-09 -0.9396927 -0.34202
vn -0.17101 -0.9396927 -0.296198
vn -0.2961981 -0.9396927 -0.1710099
vn 0 1 0
vn 0 1 0
vn 0 1 0
vn 0 1 0
vn 0 1 0
vn 0 1 0
vn 0 1 0
vn 0 1 0
vn 0 1 0
vn 0 1 0
vn 0 1 0
vn 0 1 0
vn -0.3420202 0.9396926 0
vn -0.2961981 0.9396926 0.1710101
vn -0.1710101 0.9396926 0.2961982
vn 1.495018E-08 0.9396926 0.3420202
vn 0.1710101 0.9396926 0.2961981
vn 0.2961981 0.9396926 0.1710101
vn 0.3420202 0.9396926 -2.990035E-08
vn 0.2961981 0.9396926 -0.1710101
vn 0.17101 0.9396926 -0.2961982
vn -4.078549E-09 0.9396926 -0.3420202
vn -0.17101 0.9396926 -0.2961982
vn -0.2961982 0.9396926 -0.17101
vn -0.6427876 0.7660444 0
vn -0.5566704 0.7660444 0.3213938
vn -0.3213938 0.7660444 0.5566704
vn 2.809714E-08 0.7660444 0.6427876
vn 0.3213938 0.7660444 0.5566704
vn 0.5566704 0.7660444 0.3213938
vn 0.6427876 0.7660444 -5.619428E-08
vn 0.5566703 0.7660444 -0.3213939
vn 0.3213938 0.7660444 -0.5566704
vn -7.665165E-09 0.7660444 -0.6427876
vn -0.3213938 0.7660444 -0.5566704
vn -0.5566705 0.7660444 -0.3213937
vn -0.8660254 0.4999999 0
vn -0.75 0.4999999 0.4330127
vn -0.4330127 0.4999999 0.7500001
vn 3.785517E-08 0.4999999 0.8660254
vn 0.4330128 0.4999999 0.75
vn 0.75 0.4999999 0.4330128
vn 0.8660254 0.4999999 -7.571035E-08
vn 0.7499999 0.4999999 -0.4330128
vn 0.4330126 0.4999999 -0.7500001
vn -1.032725E-08 0.4999999 -0.8660254
vn -0.4330126 0.4999999 -0.7500001
vn -0.7500002 0.4999999 -0.4330125
vn -0.9848078 0.1736481 0
vn -0.8528686 0.1736481 0.4924039
vn -0.4924039 0.1736481 0.8528686
vn 4.304732E-08 0.1736481 0.9848078
vn 0.492404 0.1736481 0.8528686
vn 0.8528686 0.1736481 0.492404
vn 0.9848078 0.1736481 -8.609463E-08
vn 0.8528684 0.1736481 -0.4924041
vn 0.4924038 0.1736481 -0.8528686
vn -1.174372E-08 0.1736481 -0.9848078
vn -0.4924038 0.1736481 -0.8528686
vn -0.8528687 0.1736481 -0.4924037
vn -0.9848077 -0.1736482 0
vn -0.8528686 -0.1736482 0.4924039
vn -0.4924039 -0.1736482 0.8528686
vn 4.304731E-08 -0.1736482 0.9848077
vn 0.492404 -0.1736482 0.8528686
vn 0.8528686 -0.1736482 0.492404
vn 0.9848077 -0.1736482 -8.609462E-08
vn 0.8528684 -0.1736482 -0.4924041
vn 0.4924038 -0.1736482 -0.8528686
vn -1.174371E-08 -0.1736482 -0.9848077
vn -0.4924038 -0.1736482 -0.8528686
vn -0.8528686 -0.1736482 -0.4924036
vn -0.8660254 -0.5000001 0
vn -0.75 -0.5000001 0.4330127
vn -0.4330127 -0.5000001 0.75
vn 3.785517E-08 -0.5000001 0.8660254
vn 0.4330128 -0.5000001 0.75
vn 0.75 -0.5000001 0.4330128
vn 0.8660254 -0.5000001 -7.571035E-08
vn 0.7499999 -0.5000001 -0.4330128
vn 0.4330126 -0.5000001 -0.75
vn -1.032725E-08 -0.5000001 -0.8660254
vn -0.4330126 -0.5000001 -0.75
vn -0.7500001 -0.5000001 -0.4330125
vn -0.6427876 -0.7660444 0
vn -0.5566704 -0.7660444 0.3213938
vn -0.3213938 -0.7660444 0.5566704
vn 2.809714E-08 -0.7660444 0.6427876
vn 0.3213938 -0.7660444 0.5566704
vn 0.5566704 -0.7660444 0.3213938
vn 0.6427876 -0.7660444 -5.619428E-08
vn 0.5566703 -0.7660444 -0.3213939
vn 0.3213938 -0.7660444 -0.5566704
vn -7.665165E-09 -0.7660444 -0.6427876
vn -0.3213938 -0.7660444 -0.5566704
vn -0.5566705 -0.7660444 -0.3213937
vn -0.34202 -0.9396927 0
vn -0.296198 -0.9396927 0.17101
vn -0.17101 -0.9396927 0.296198
vn 1.495017E-08 -0.9396927 0.34202
vn 0.17101 -0.9396927 0.296198
vn 0.296198 -0.9396927 0.17101
vn 0.34202 -0.9396927 -2.990034E-08
vn 0.296198 -0.9396927 -0.1710101
vn 0.17101 -0.9396927 -0.296198
vn -4.078548E-09 -0.9396927 -0.34202
vn -0.17101 -0.9396927 -0.296198
vn -0.2961981 -0.9396927 -0.1710099
vn 0 1 0
vn 0 1 0
vn 0 1 0
vn 0 1 0
vn 0 1 0
vn 0 1 0
vn 0 1 0
vn 0 1 0
vn 0 1 0
vn 0 1 0
vn 0 1 0
vn 0 1 0
vn -0.3420202 0.9396926 0
vn -0.2961981 0.9396926 0.1710101
vn -0.1710101 0.9396926 0.2961982
vn 1.495018E-08 0.9396926 0.3420202
vn 0.1710101 0.9396926 0.2961981
vn 0.2961981 0.9396926 0.1710101
vn 0.3420202 0.9396926 -2.990035E-08
vn 0.2961981 0.9396926 -0.1710101
vn 0.17101 0.9396926 -0.2961982
vn -4.078549E-09 0.9396926 -0.3420202
vn -0.17101 0.9396926 -0.2961982
vn -0.2961982 0.9396926 -0.17101
vn -0.6427876 0.7660444 0
vn -0.5566704 0.7660444 0.3213938
vn -0.3213938 0.7660444 0.5566704
vn 2.809714E-08 0.7660444 0.6427876
vn 0.3213938 0.7660444 0.5566704
vn 0.5566704 0.7660444 0.3213938
vn 0.6427876 0.7660444 -5.619428E-08
vn 0.5566703 0.7660444 -0.3213939
vn 0.3213938 0.7660444 -0.5566704
vn -7.665165E-09 0.7660444 -0.6427876
vn -0.3213938 0.7660444 -0.5566704
vn -0.5566705 0.7660444 -0.3213937
vn -0.8660254 0.4999999 0
vn -0.75 0.4999999 0.4330127
vn -0.4330127 0.4999999 0.7500001
vn 3.785517E-08 0.4999999 0.8660254
vn 0.4330128 0.4999999 0.75
vn 0.75 0.4999999 0.4330128
vn 0.8660254 0.4999999 -7.571035E-08
vn 0.7499999 0.4999999 -0.4330128
vn 0.4330126 0.4999999 -0.7500001
vn -1.032725E-08 0.4999999 -0.8660254
vn -0.4330126 0.4999999 -0.7500001
vn -0.7500002 0.4999999 -0.4330125
vn -0.9848078 0.1736481 0
vn -0.8528686 0.1736481 0.4924039
vn -0.4924039 0.1736481 0.8528686
vn 4.304732E-08 0.1736481 0.9848078
vn 0.492404 0.1736481 0.8528686
vn 0.8528686 0.1736481 0.492404
vn 0.9848078 0.1736481 -8.609463E-08
vn 0.8528684 0.1736481 -0.4924041
vn 0.4924038 0.1736481 -0.8528686
vn -1.174372E-08 0.1736481 -0.9848078
vn -0.4924038 0.1736481 -0.8528686
vn -0.8528687 0.1736481 -0.4924037
vn -0.9848077 -0.1736482 0
vn -0.8528686 -0.1736482 0.4924039
vn -0.4924039 -0.1736482 0.8528686
vn 4.304731E-08 -0.1736482 0.9848077
vn 0.492404 -0.1736482 0.8528686
vn 0.8528686 -0.1736482 0.492404
vn 0.9848077 -0.1736482 -8.609462E-08
vn 0.8528684 -0.1736482 -0.4924041
vn 0.4924038 -0.1736482 -0.8528686
vn -1.174371E-08 -0.1736482 -0.9848077
vn -0.4924038 -0.1736482 -0.8528686
vn -0.8528686 -0.1736482 -0.4924036
vn -0.8660254 -0.5000001 0
vn -0.75 -0.5000001 0.4330127
vn -0.4330127 -0.5000001 0.75
vn 3.785517E-08 -0.5000001 0.8660254
vn 0.4330128 -0.5000001 0.75
vn 0.75 -0.5000001 0.4330128
vn 0.8660254 -0.5000001 -7.571035E-08
vn 0.7499999 -0.5000001 -0.4330128
vn 0.4330126 -0.5000001 -0.75
vn -1.032725E-08 -0.5000001 -0.8660254
vn -0.4330126 -0.5000001 -0.75
vn -0.7500001 -0.5000001 -0.4330125
vn -0.6427876 -0.7660444 0
vn -0.5566704 -0.7660444 0.3213938
vn -0.3213938 -0.7660444 0.5566704
vn 2.809714E-08 -0.7660444 0.6427876
vn 0.3213938 -0.7660444 0.5566704
vn 0.5566704 -0.7660444 0.3213938
vn 0.6427876 -0.7660444 -5.619428E-08
vn 0.5566703 -0.7660444 -0.3213939
vn 0.3213938 -0.7660444 -0.5566704
vn -7.665165E-09 -0.7660444 -0.6427876
vn -0.3213938 -0.7660444 -0.5566704
vn -0.5566705 -0.7660444 -0.3213937
vn -0.34202 -0.9396927 0
vn -0.296198 -0.9396927 0.17101
vn -0.17101 -0.9396927 0.296198
vn 1.495017E-08 -0.9396927 0.34202
vn 0.17101 -0.9396927 0.296198
vn 0.296198 -0.9396927 0.17101
vn 0.34202 -0.9396927 -2.990034E-08
vn 0.296198 -0.9396927 -0.1710101
vn 0.17101 -0.9396927 -0.296198
vn -4.078548E-09 -0.9396927 -0.34202
vn -0.17101 -0.9396927 -0.296198
vn -0.2961981 -0.9396927 -0.1710099
vn 0.8298369 -0.1635921 -0.5334869
vn -0.3270887 -0.4168152 0.8481027
vn -0.5018258 0.5220892 -0.689633
vn 0.2176672 0.9719177 -0.08942629
vn 0.3822241 -0.1740253 0.9075351
vn -0.1339468 -0.1842829 0.9737033
vn 0.3576699 -0.8936892 -0.2709095
vn -0.3270887 -0.4168152 0.8481027
vn -0.1201394 0.04891 -0.9915515
vn 0.7807885 -0.3579323 -0.5121073
vn -0.3270887 -0.4168152 0.8481027
vn -0.5018258 0.5220892 -0.689633
vn 0.2176672 0.9719177 -0.08942629
vn 0.4442511 -0.3045582 0.8425469
vn -0.1499921 -0.1671893 0.9744486
vn 0.3576699 -0.8936892 -0.2709095
vn -0.3270887 -0.4168152 0.8481027
vn -0.1540529 0.08917588 -0.9840301
vn 0.8406984 -0.07673258 -0.5360395
vn -0.3270887 -0.4168152 0.8481027
vn -0.5018258 0.5220892 -0.689633
vn 0.2176672 0.9719177 -0.08942629
vn 0.5082242 -0.462945 0.7262163
vn 0.2097161 -0.5088633 0.8349115
vn 0.3576699 -0.8936892 -0.2709095
vn -0.3270887 -0.4168152 0.8481027
vn -0.3966798 0.38622 -0.832754
vn 0.843869 0.08294725 -0.530099
vn 0.03985515 -0.9727796 0.2282795
vn -0.6257854 0.372121 -0.685506
vn -0.1145976 0.9859393 0.1216189
vn 0.4056382 -0.2214716 0.8867965
vn 0.2445217 -0.2721148 0.9306786
vn 0.3576699 -0.8936892 -0.2709095
vn 0.5703753 -0.4084623 0.7126223
vn -0.3924287 0.1579039 -0.906127
vn 0.8445221 -0.01400978 -0.5353374
vn -0.009757249 -0.9575872 0.2879784
vn -0.7058043 0.5021598 -0.4996758
vn -0.08027156 0.9917264 0.100176
vn 0.3042544 -0.02779588 0.9521852
vn 0.09339914 -0.07672691 0.9926679
vn 0.3576699 -0.8936892 -0.2709095
vn 0.7052542 -0.5024599 0.5001504
vn -0.2830792 -0.03327509 -0.9585192
vn 0.7807885 -0.3579323 -0.5121073
vn -0.3270887 -0.4168152 0.8481027
vn -0.5018258 0.5220892 -0.689633
vn 0.2176672 0.9719177 -0.08942629
vn 0.4442511 -0.3045582 0.8425469
vn -0.1499921 -0.1671893 0.9744486
vn 0.3576699 -0.8936892 -0.2709095
vn -0.3270887 -0.4168152 0.8481027
vn -0.1540529 0.08917588 -0.9840301
vn 0.8196962 -0.2178189 -0.529767
vn -0.3274681 -0.6325505 0.7018865
vn -0.5018258 0.5220892 -0.689633
vn 0.2176672 0.9719177 -0.08942629
vn 0.9073592 -0.2697247 -0.3224096
vn -0.2948503 -0.3308436 0.8964406
vn 0.6517748 -0.6154026 -0.4432486
vn -0.2209362 -0.4516503 0.8644068
vn -0.1454274 0.07890921 -0.9862171
usemtl mat19
f 3//1 2//1 1//1
f 2//2 4//2 1//2
f 4//3 5//3 1//3
f 5//4 6//4 1//4
f 6//5 7//5 1//5
f 7//6 8//6 1//6
f 8//7 9//7 1//7
f 9//8 10//8 1//8
f 10//9 11//9 1//9
f 11//10 12//10 1//10
f 12//11 13//11 1//11
f 13//12 3//12 1//12
f 13//13 12//13 11//13 10//13 9//13 8//13 7//13 6//13 5//13 4//13 2//13 3//13
f 16//14 15//14 14//14
f 15//15 17//15 14//15
f 17//16 18//16 14//16
f 18//17 19//17 14//17
f 19//18 20//18 14//18
f 20//19 21//19 14//19
f 21//20 22//20 14//20
f 22//21 23//21 14//21
f 23//22 24//22 14//22
f 24//23 25//23 14//23
f 25//24 26//24 14//24
f 26//25 16//25 14//25
f 26//26 25//26 24//26 23//26 22//26 21//26 20//26 19//26 18//26 17//26 15//26 16//26
f 29//27 28//27 27//27
f 28//28 30//28 27//28
f 30//29 31//29 27//29
f 31//30 32//30 27//30
f 32//31 33//31 27//31
f 33//32 34//32 27//32
f 34//33 35//33 27//33
f 35//34 36//34 27//34
f 36//35 37//35 27//35
f 37//36 38//36 27//36
f 38//37 39//37 27//37
f 39//38 29//38 27//38
f 39//39 38//39 37//39 36//39 35//39 34//39 33//39 32//39 31//39 30//39 28//39 29//39
f 42//40 41//40 40//40
f 41//41 43//41 40//41
f 43//42 44//42 40//42
f 44//43 45//43 40//43
f 45//44 46//44 40//44
f 46//45 47//45 40//45
f 47//46 48//46 40//46
f 48//47 49//47 40//47
f 49//48 50//48 40//48
f 50//49 51//49 40//49
f 51//50 52//50 40//50
f 52//51 42//51 40//51
f 52//52 51//52 50//52 49//52 48//52 47//52 46//52 45//52 44//52 43//52 41//52 42//52
f 55//53 54//53 53//53
f 54//54 56//54 53//54
f 56//55 57//55 53//55
f 57//56 58//56 53//56
f 58//57 59//57 53//57
f 59//58 60//58 53//58
f 60//59 61//59 53//59
f 61//60 62//60 53//60
f 62//61 63//61 53//61
f 63//62 64//62 53//62
f 64//63 65//63 53//63
f 65//64 55//64 53//64
f 65//65 64//65 63//65 62//65 61//65 60//65 59//65 58//65 57//65 56//65 54//65 55//65
f 68//66 67//66 66//66
f 67//67 69//67 66//67
f 69//68 70//68 66//68
f 70//69 71//69 66//69
f 71//70 72//70 66//70
f 72//71 73//71 66//71
f 73//72 74//72 66//72
f 74//73 75//73 66//73
f 75//74 76//74 66//74
f 76//75 77//75 66//75
f 77//76 78//76 66//76
f 78//77 68//77 66//77
f 78//78 77//78 76//78 75//78 74//78 73//78 72//78 71//78 70//78 69//78 67//78 68//78
f 81//79 80//79 79//79
f 80//80 82//80 79//80
f 82//81 83//81 79//81
f 83//82 84//82 79//82
f 84//83 85//83 79//83
f 85//84 86//84 79//84
f 86//85 87//85 79//85
f 87//86 88//86 79//86
f 88//87 89//87 79//87
f 89//88 90//88 79//88
f 90//89 91//89 79//89
f 91//90 81//90 79//90
f 91//91 90//91 89//91 88//91 87//91 86//91 85//91 84//91 83//91 82//91 80//91 81//91
f 94//92 93//92 92//92
f 93//93 95//93 92//93
f 95//94 96//94 92//94
f 96//95 97//95 92//95
f 97//96 98//96 92//96
f 98//97 99//97 92//97
f 99//98 100//98 92//98
f 100//99 101//99 92//99
f 101//100 102//100 92//100
f 102//101 103//101 92//101
f 103//102 104//102 92//102
f 104//103 94//103 92//103
f 104//104 103//104 102//104 101//104 100//104 99//104 98//104 97//104 96//104 95//104 93//104 94//104
f 107//105 106//105 105//105
f 106//106 108//106 105//106
f 108//107 109//107 105//107
f 109//108 110//108 105//108
f 110//109 111//109 105//109
f 111//110 112//110 105//110
f 112//111 113//111 105//111
f 113//112 114//112 105//112
f 114//113 115//113 105//113
f 115//114 116//114 105//114
f 116//115 117//115 105//115
f 117//116 107//116 105//116
f 117//117 116//117 115//117 114//117 113//117 112//117 111//117 110//117 109//117 108//117 106//117 107//117
f 120//118 119//118 118//118
f 119//119 121//119 118//119
f 121//120 122//120 118//120
f 122//121 123//121 118//121
f 123//122 124//122 118//122
f 124//123 125//123 118//123
f 125//124 126//124 118//124
f 126//125 127//125 118//125
f 127//126 128//126 118//126
f 128//127 129//127 118//127
f 129//128 130//128 118//128
f 130//129 120//129 118//129
f 130//130 129//130 128//130 127//130 126//130 125//130 124//130 123//130 122//130 121//130 119//130 120//130
f 133//131 132//131 131//131
f 132//132 134//132 131//132
f 134//133 135//133 131//133
f 135//134 136//134 131//134
f 136//135 137//135 131//135
f 137//136 138//136 131//136
f 138//137 139//137 131//137
f 139//138 140//138 131//138
f 140//139 141//139 131//139
f 141//140 142//140 131//140
f 142//141 143//141 131//141
f 143//142 133//142 131//142
f 143//143 142//143 141//143 140//143 139//143 138//143 137//143 136//143 135//143 134//143 132//143 133//143
f 146//144 145//144 144//144
f 145//145 147//145 144//145
f 147//146 148//146 144//146
f 148//147 149//147 144//147
f 149//148 150//148 144//148
f 150//149 151//149 144//149
f 151//150 152//150 144//150
f 152//151 153//151 144//151
f 153//152 154//152 144//152
f 154//153 155//153 144//153
f 155//154 156//154 144//154
f 156//155 146//155 144//155
f 156//156 155//156 154//156 153//156 152//156 151//156 150//156 149//156 148//156 147//156 145//156 146//156
f 159//157 158//157 157//157
f 158//158 160//158 157//158
f 160//159 161//159 157//159
f 161//160 162//160 157//160
f 162//161 163//161 157//161
f 163//162 164//162 157//162
f 164//163 165//163 157//163
f 165//164 166//164 157//164
f 166//165 167//165 157//165
f 167//166 168//166 157//166
f 168//167 169//167 157//167
f 169//168 159//168 157//168
f 169//169 168//169 167//169 166//169 165//169 164//169 163//169 162//169 161//169 160//169 158//169 159//169
f 172//170 171//170 170//170
f 171//171 173//171 170//171
f 173//172 174//172 170//172
f 174//173 175//173 170//173
f 175//174 176//174 170//174
f 176//175 177//175 170//175
f 177//176 178//176 170//176
f 178//177 179//177 170//177
f 179//178 180//178 170//178
f 180//179 181//179 170//179
f 181//180 182//180 170//180
f 182//181 172//181 170//181
f 182//182 181//182 180//182 179//182 178//182 177//182 176//182 175//182 174//182 173//182 171//182 172//182
f 185//183 184//183 183//183
f 184//184 186//184 183//184
f 186//185 187//185 183//185
f 187//186 188//186 183//186
f 188//187 189//187 183//187
f 189//188 190//188 183//188
f 190//189 191//189 183//189
f 191//190 192//190 183//190
f 192//191 193//191 183//191
f 193//192 194//192 183//192
f 194//193 195//193 183//193
f 195//194 185//194 183//194
f 195//195 194//195 193//195 192//195 191//195 190//195 189//195 188//195 187//195 186//195 184//195 185//195
usemtl mat20
f 198//196 197//196 196//196
f 197//197 199//197 196//197
f 199//198 200//198 196//198
f 200//199 201//199 196//199
f 201//200 202//200 196//200
f 202//201 203//201 196//201
f 203//202 204//202 196//202
f 204//203 205//203 196//203
f 205//204 206//204 196//204
f 206//205 207//205 196//205
f 207//206 208//206 196//206
f 208//207 198//207 196//207
f 210//208 209//208 197//208 198//208
f 209//209 211//209 199//209 197//209
f 211//210 212//210 200//210 199//210
f 212//211 213//211 201//211 200//211
f 213//212 214//212 202//212 201//212
f 214//213 215//213 203//213 202//213
f 215//214 216//214 204//214 203//214
f 216//215 217//215 205//215 204//215
f 217//216 218//216 206//216 205//216
f 218//217 219//217 207//217 206//217
f 219//218 220//218 208//218 207//218
f 220//219 210//219 198//219 208//219
f 222//220 221//220 209//220 210//220
f 221//221 223//221 211//221 209//221
f 223//222 224//222 212//222 211//222
f 224//223 225//223 213//223 212//223
f 225//224 226//224 214//224 213//224
f 226//225 227//225 215//225 214//225
f 227//226 228//226 216//226 215//226
f 228//227 229//227 217//227 216//227
f 229//228 230//228 218//228 217//228
f 230//229 231//229 219//229 218//229
f 231//230 232//230 220//230 219//230
f 232//231 222//231 210//231 220//231
f 234//232 233//232 221//232 222//232
f 233//233 235//233 223//233 221//233
f 235//234 236//234 224//234 223//234
f 236//235 237//235 225//235 224//235
f 237//236 238//236 226//236 225//236
f 238//237 239//237 227//237 226//237
f 239//238 240//238 228//238 227//238
f 240//239 241//239 229//239 228//239
f 241//240 242//240 230//240 229//240
f 242//241 243//241 231//241 230//241
f 243//242 244//242 232//242 231//242
f 244//243 234//243 222//243 232//243
f 246//244 245//244 233//244 234//244
f 245//245 247//245 235//245 233//245
f 247//246 248//246 236//246 235//246
f 248//247 249//247 237//247 236//247
f 249//248 250//248 238//248 237//248
f 250//249 251//249 239//249 238//249
f 251//250 252//250 240//250 239//250
f 252//251 253//251 241//251 240//251
f 253//252 254//252 242//252 241//252
f 254//253 255//253 243//253 242//253
f 255//254 256//254 244//254 243//254
f 256//255 246//255 234//255 244//255
f 258//256 257//256 245//256 246//256
f 257//257 259//257 247//257 245//257
f 259//258 260//258 248//258 247//258
f 260//259 261//259 249//259 248//259
f 261//260 262//260 250//260 249//260
f 262//261 263//261 251//261 250//261
f 263//262 264//262 252//262 251//262
f 264//263 265//263 253//263 252//263
f 265//264 266//264 254//264 253//264
f 266//265 267//265 255//265 254//265
f 267//266 268//266 256//266 255//266
f 268//267 258//267 246//267 256//267
f 270//268 269//268 257//268 258//268
f 269//269 271//269 259//269 257//269
f 271//270 272//270 260//270 259//270
f 272//271 273//271 261//271 260//271
f 273//272 274//272 262//272 261//272
f 274//273 275//273 263//273 262//273
f 275//274 276//274 264//274 263//274
f 276//275 277//275 265//275 264//275
f 277//276 278//276 266//276 265//276
f 278//277 279//277 267//277 266//277
f 279//278 280//278 268//278 267//278
f 280//279 270//279 258//279 268//279
f 282//280 281//280 269//280 270//280
f 281//281 283//281 271//281 269//281
f 283//282 284//282 272//282 271//282
f 284//283 285//283 273//283 272//283
f 285//284 286//284 274//284 273//284
f 286//285 287//285 275//285 274//285
f 287//286 288//286 276//286 275//286
f 288//287 289//287 277//287 276//287
f 289//288 290//288 278//288 277//288
f 290//289 291//289 279//289 278//289
f 291//290 292//290 280//290 279//290
f 292//291 282//291 270//291 280//291
f 293//292 281//292 282//292
f 293//293 283//293 281//293
f 293//294 284//294 283//294
f 293//295 285//295 284//295
f 293//296 286//296 285//296
f 293//297 287//297 286//297
f 293//298 288//298 287//298
f 293//299 289//299 288//299
f 293//300 290//300 289//300
f 293//301 291//301 290//301
f 293//302 292//302 291//302
f 293//303 282//303 292//303
f 296//304 295//304 294//304
f 295//305 297//305 294//305
f 297//306 298//306 294//306
f 298//307 299//307 294//307
f 299//308 300//308 294//308
f 300//309 301//309 294//309
f 301//310 302//310 294//310
f 302//311 303//311 294//311
f 303//312 304//312 294//312
f 304//313 305//313 294//313
f 305//314 306//314 294//314
f 306//315 296//315 294//315
f 308//316 307//316 295//316 296//316
f 307//317 309//317 297//317 295//317
f 309//318 310//318 298//318 297//318
f 310//319 311//319 299//319 298//319
f 311//320 312//320 300//320 299//320
f 312//321 313//321 301//321 300//321
f 313//322 314//322 302//322 301//322
f 314//323 315//323 303//323 302//323
f 315//324 316//324 304//324 303//324
f 316//325 317//325 305//325 304//325
f 317//326 318//326 306//326 305//326
f 318//327 308//327 296//327 306//327
f 320//328 319//328 307//328 308//328
f 319//329 321//329 309//329 307//329
f 321//330 322//330 310//330 309//330
f 322//331 323//331 311//331 310//331
f 323//332 324//332 312//332 311//332
f 324//333 325//333 313//333 312//333
f 325//334 326//334 314//334 313//334
f 326//335 327//335 315//335 314//335
f 327//336 328//336 316//336 315//336
f 328//337 329//337 317//337 316//337
f 329//338 330//338 318//338 317//338
f 330//339 320//339 308//339 318//339
f 332//340 331//340 319//340 320//340
f 331//341 333//341 321//341 319//341
f 333//342 334//342 322//342 321//342
f 334//343 335//343 323//343 322//343
f 335//344 336//344 324//344 323//344
f 336//345 337//345 325//345 324//345
f 337//346 338//346 326//346 325//346
f 338//347 339//347 327//347 326//347
f 339//348 340//348 328//348 327//348
f 340//349 341//349 329//349 328//349
f 341//350 342//350 330//350 329//350
f 342//351 332//351 320//351 330//351
f 344//352 343//352 331//352 332//352
f 343//353 345//353 333//353 331//353
f 345//354 346//354 334//354 333//354
f 346//355 347//355 335//355 334//355
f 347//356 348//356 336//356 335//356
f 348//357 349//357 337//357 336//357
f 349//358 350//358 338//358 337//358
f 350//359 351//359 339//359 338//359
f 351//360 352//360 340//360 339//360
f 352//361 353//361 341//361 340//361
f 353//362 354//362 342//362 341//362
f 354//363 344//363 332//363 342//363
f 356//364 355//364 343//364 344//364
f 355//365 357//365 345//365 343//365
f 357//366 358//366 346//366 345//366
f 358//367 359//367 347//367 346//367
f 359//368 360//368 348//368 347//368
f 360//369 361//369 349//369 348//369
f 361//370 362//370 350//370 349//370
f 362//371 363//371 351//371 350//371
f 363//372 364//372 352//372 351//372
f 364//373 365//373 353//373 352//373
f 365//374 366//374 354//374 353//374
f 366//375 356//375 344//375 354//375
f 368//376 367//376 355//376 356//376
f 367//377 369//377 357//377 355//377
f 369//378 370//378 358//378 357//378
f 370//379 371//379 359//379 358//379
f 371//380 372//380 360//380 359//380
f 372//381 373//381 361//381 360//381
f 373//382 374//382 362//382 361//382
f 374//383 375//383 363//383 362//383
f 375//384 376//384 364//384 363//384
f 376//385 377//385 365//385 364//385
f 377//386 378//386 366//386 365//386
f 378//387 368//387 356//387 366//387
f 380//388 379//388 367//388 368//388
f 379//389 381//389 369//389 367//389
f 381//390 382//390 370//390 369//390
f 382//391 383//391 371//391 370//391
f 383//392 384//392 372//392 371//392
f 384//393 385//393 373//393 372//393
f 385//394 386//394 374//394 373//394
f 386//395 387//395 375//395 374//395
f 387//396 388//396 376//396 375//396
f 388//397 389//397 377//397 376//397
f 389//398 390//398 378//398 377//398
f 390//399 380//399 368//399 378//399
f 391//400 379//400 380//400
f 391//401 381//401 379//401
f 391//402 382//402 381//402
f 391//403 383//403 382//403
f 391//404 384//404 383//404
f 391//405 385//405 384//405
f 391//406 386//406 385//406
f 391//407 387//407 386//407
f 391//408 388//408 387//408
f 391//409 389//409 388//409
f 391//410 390//410 389//410
f 391//411 380//411 390//411
f 394//412 393//412 392//412
f 393//413 395//413 392//413
f 395//414 396//414 392//414
f 396//415 397//415 392//415
f 397//416 398//416 392//416
f 398//417 399//417 392//417
f 399//418 400//418 392//418
f 400//419 401//419 392//419
f 401//420 402//420 392//420
f 402//421 403//421 392//421
f 403//422 404//422 392//422
f 404//423 394//423 392//423
f 406//424 405//424 393//424 394//424
f 405//425 407//425 395//425 393//425
f 407//426 408//426 396//426 395//426
f 408//427 409//427 397//427 396//427
f 409//428 410//428 398//428 397//428
f 410//429 411//429 399//429 398//429
f 411//430 412//430 400//430 399//430
f 412//431 413//431 401//431 400//431
f 413//432 414//432 402//432 401//432
f 414//433 415//433 403//433 402//433
f 415//434 416//434 404//434 403//434
f 416//435 406//435 394//435 404//435
f 418//436 417//436 405//436 406//436
f 417//437 419//437 407//437 405//437
f 419//438 420//438 408//438 407//438
f 420//439 421//439 409//439 408//439
f 421//440 422//440 410//440 409//440
f 422//441 423//441 411//441 410//441
f 423//442 424//442 412//442 411//442
f 424//443 425//443 413//443 412//443
f 425//444 426//444 414//444 413//444
f 426//445 427//445 415//445 414//445
f 427//446 428//446 416//446 415//446
f 428//447 418//447 406//447 416//447
f 430//448 429//448 417//448 418//448
f 429//449 431//449 419//449 417//449
f 431//450 432//450 420//450 419//450
f 432//451 433//451 421//451 420//451
f 433//452 434//452 422//452 421//452
f 434//453 435//453 423//453 422//453
f 435//454 436//454 424//454 423//454
f 436//455 437//455 425//455 424//455
f 437//456 438//456 426//456 425//456
f 438//457 439//457 427//457 426//457
f 439//458 440//458 428//458 427//458
f 440//459 430//459 418//459 428//459
f 442//460 441//460 429//460 430//460
f 441//461 443//461 431//461 429//461
f 443//462 444//462 432//462 431//462
f 444//463 445//463 433//463 432//463
f 445//464 446//464 434//464 433//464
f 446//465 447//465 435//465 434//465
f 447//466 448//466 436//466 435//466
f 448//467 449//467 437//467 436//467
f 449//468 450//468 438//468 437//468
f 450//469 451//469 439//469 438//469
f 451//470 452//470 440//470 439//470
f 452//471 442//471 430//471 440//471
f 454//472 453//472 441//472 442//472
f 453//473 455//473 443//473 441//473
f 455//474 456//474 444//474 443//474
f 456//475 457//475 445//475 444//475
f 457//476 458//476 446//476 445//476
f 458//477 459//477 447//477 446//477
f 459//478 460//478 448//478 447//478
f 460//479 461//479 449//479 448//479
f 461//480 462//480 450//480 449//480
f 462//481 463//481 451//481 450//481
f 463//482 464//482 452//482 451//482
f 464//483 454//483 442//483 452//483
f 466//484 465//484 453//484 454//484
f 465//485 467//485 455//485 453//485
f 467//486 468//486 456//486 455//486
f 468//487 469//487 457//487 456//487
f 469//488 470//488 458//488 457//488
f 470//489 471//489 459//489 458//489
f 471//490 472//490 460//490 459//490
f 472//491 473//491 461//491 460//491
f 473//492 474//492 462//492 461//492
f 474//493 475//493 463//493 462//493
f 475//494 476//494 464//494 463//494
f 476//495 466//495 454//495 464//495
f 478//496 477//496 465//496 466//496
f 477//497 479//497 467//497 465//497
f 479//498 480//498 468//498 467//498
f 480//499 481//499 469//499 468//499
f 481//500 482//500 470//500 469//500
f 482//501 483//501 471//501 470//501
f 483//502 484//502 472//502 471//502
f 484//503 485//503 473//503 472//503
f 485//504 486//504 474//504 473//504
f 486//505 487//505 475//505 474//505
f 487//506 488//506 476//506 475//506
f 488//507 478//507 466//507 476//507
f 489//508 477//508 478//508
f 489//509 479//509 477//509
f 489//510 480//510 479//510
f 489//511 481//511 480//511
f 489//512 482//512 481//512
f 489//513 483//513 482//513
f 489//514 484//514 483//514
f 489//515 485//515 484//515
f 489//516 486//516 485//516
f 489//517 487//517 486//517
f 489//518 488//518 487//518
f 489//519 478//519 488//519
f 492//520 491//520 490//520
f 491//521 493//521 490//521
f 493//522 494//522 490//522
f 494//523 495//523 490//523
f 495//524 496//524 490//524
f 496//525 497//525 490//525
f 497//526 498//526 490//526
f 498//527 499//527 490//527
f 499//528 500//528 490//528
f 500//529 501//529 490//529
f 501//530 502//530 490//530
f 502//531 492//531 490//531
f 504//532 503//532 491//532 492//532
f 503//533 505//533 493//533 491//533
f 505//534 506//534 494//534 493//534
f 506//535 507//535 495//535 494//535
f 507//536 508//536 496//536 495//536
f 508//537 509//537 497//537 496//537
f 509//538 510//538 498//538 497//538
f 510//539 511//539 499//539 498//539
f 511//540 512//540 500//540 499//540
f 512//541 513//541 501//541 500//541
f 513//542 514//542 502//542 501//542
f 514//543 504//543 492//543 502//543
f 516//544 515//544 503//544 504//544
f 515//545 517//545 505//545 503//545
f 517//546 518//546 506//546 505//546
f 518//547 519//547 507//547 506//547
f 519//548 520//548 508//548 507//548
f 520//549 521//549 509//549 508//549
f 521//550 522//550 510//550 509//550
f 522//551 523//551 511//551 510//551
f 523//552 524//552 512//552 511//552
f 524//553 525//553 513//553 512//553
f 525//554 526//554 514//554 513//554
f 526//555 516//555 504//555 514//555
f 528//556 527//556 515//556 516//556
f 527//557 529//557 517//557 515//557
f 529//558 530//558 518//558 517//558
f 530//559 531//559 519//559 518//559
f 531//560 532//560 520//560 519//560
f 532//561 533//561 521//561 520//561
f 533//562 534//562 522//562 521//562
f 534//563 535//563 523//563 522//563
f 535//564 536//564 524//564 523//564
f 536//565 537//565 525//565 524//565
f 537//566 538//566 526//566 525//566
f 538//567 528//567 516//567 526//567
f 540//568 539//568 527//568 528//568
f 539//569 541//569 529//569 527//569
f 541//570 542//570 530//570 529//570
f 542//571 543//571 531//571 530//571
f 543//572 544//572 532//572 531//572
f 544//573 545//573 533//573 532//573
f 545//574 546//574 534//574 533//574
f 546//575 547//575 535//575 534//575
f 547//576 548//576 536//576 535//576
f 548//577 549//577 537//577 536//577
f 549//578 550//578 538//578 537//578
f 550//579 540//579 528//579 538//579
f 552//580 551//580 539//580 540//580
f 551//581 553//581 541//581 539//581
f 553//582 554//582 542//582 541//582
f 554//583 555//583 543//583 542//583
f 555//584 556//584 544//584 543//584
f 556//585 557//585 545//585 544//585
f 557//586 558//586 546//586 545//586
f 558//587 559//587 547//587 546//587
f 559//588 560//588 548//588 547//588
f 560//589 561//589 549//589 548//589
f 561//590 562//590 550//590 549//590
f 562//591 552//591 540//591 550//591
f 564//592 563//592 551//592 552//592
f 563//593 565//593 553//593 551//593
f 565//594 566//594 554//594 553//594
f 566//595 567//595 555//595 554//595
f 567//596 568//596 556//596 555//596
f 568//597 569//597 557//597 556//597
f 569//598 570//598 558//598 557//598
f 570//599 571//599 559//599 558//599
f 571//600 572//600 560//600 559//600
f 572//601 573//601 561//601 560//601
f 573//602 574//602 562//602 561//602
f 574//603 564//603 552//603 562//603
f 576//604 575//604 563//604 564//604
f 575//605 577//605 565//605 563//605
f 577//606 578//606 566//606 565//606
f 578//607 579//607 567//607 566//607
f 579//608 580//608 568//608 567//608
f 580//609 581//609 569//609 568//609
f 581//610 582//610 570//610 569//610
f 582//611 583//611 571//611 570//611
f 583//612 584//612 572//612 571//612
f 584//613 585//613 573//613 572//613
f 585//614 586//614 574//614 573//614
f 586//615 576//615 564//615 574//615
f 587//616 575//616 576//616
f 587//617 577//617 575//617
f 587//618 578//618 577//618
f 587//619 579//619 578//619
f 587//620 580//620 579//620
f 587//621 581//621 580//621
f 587//622 582//622 581//622
f 587//623 583//623 582//623
f 587//624 584//624 583//624
f 587//625 585//625 584//625
f 587//626 586//626 585//626
f 587//627 576//627 586//627
usemtl mat9
f 590//628 589//628 588//628
f 593//629 592//629 591//629
f 594//630 591//630 588//630
f 590//631 588//631 591//631 592//631
f 590//632 593//632 589//632
f 594//633 589//633 593//633
f 590//634 592//634 593//634
f 594//635 593//635 591//635
f 588//636 589//636 594//636
f 597//637 596//637 595//637
f 600//638 599//638 598//638
f 601//639 598//639 595//639
f 597//640 595//640 598//640 599//640
f 597//641 600//641 596//641
f 601//642 596//642 600//642
f 597//643 599//643 600//643
f 601//644 600//644 598//644
f 595//645 596//645 601//645
f 604//646 603//646 602//646
f 607//647 606//647 605//647
f 608//648 605//648 602//648
f 604//649 602//649 605//649 606//649
f 604//650 607//650 603//650
f 608//651 603//651 607//651
f 604//652 606//652 607//652
f 608//653 607//653 605//653
f 602//654 603//654 608//654
f 611//655 610//655 609//655
f 614//656 613//656 612//656
f 615//657 612//657 609//657
f 611//658 609//658 612//658 613//658
f 611//659 614//659 610//659
f 615//660 610//660 614//660
f 611//661 613//661 614//661
f 615//662 614//662 612//662
f 609//663 610//663 615//663
f 618//664 617//664 616//664
f 621//665 620//665 619//665
f 622//666 619//666 616//666
f 618//667 616//667 619//667 620//667
f 618//668 621//668 617//668
f 622//669 617//669 621//669
f 618//670 620//670 621//670
f 622//671 621//671 619//671
f 616//672 617//672 622//672
f 625//673 624//673 623//673
f 628//674 627//674 626//674
f 629//675 626//675 623//675
f 625//676 623//676 626//676 627//676
f 625//677 628//677 624//677
f 629//678 624//678 628//678
f 625//679 627//679 628//679
f 629//680 628//680 626//680
f 623//681 624//681 629//681
f 632//682 631//682 630//682
f 635//683 634//683 633//683
f 636//684 633//684 630//684
f 632//685 630//685 633//685 634//685
f 632//686 635//686 631//686
f 636//687 631//687 635//687
f 632//688 634//688 635//688
f 636//689 635//689 633//689
f 630//690 631//690 636//690
